<?xml version="1.0" encoding="utf-8"?>
<!-- Generator: Adobe Illustrator 23.1.0, SVG Export Plug-In . SVG Version: 6.00 Build 0)  -->
<svg version="1.1" id="Слой_1" xmlns="http://www.w3.org/2000/svg" xmlns:xlink="http://www.w3.org/1999/xlink" x="0px" y="0px"
	 viewBox="0 0 52 53" style="enable-background:new 0 0 52 53;" xml:space="preserve">
<style type="text/css">
	.st0{fill:none;stroke:#DCE5F4;stroke-width:3;}
	.st1{fill:none;stroke:#F07255;stroke-width:3;stroke-linecap:round;}
</style>
<circle class="st0" cx="26.1" cy="26.4" r="24.3"/>
<path class="st1" d="M26.1,2c13.4,0,24.3,10.9,24.3,24.3c0,4.4-1.2,8.6-3.3,12.2"/>
</svg>
