<svg width="26" height="22" viewBox="0 0 26 22" fill="none" xmlns="http://www.w3.org/2000/svg">
<path d="M4.67165 9.60021C4.69291 9.59438 4.71379 9.58868 4.73428 9.58311C4.91469 9.78411 5.148 10.0229 5.42696 10.2633C6.10832 10.8503 7.18978 11.556 8.51786 11.556C9.84595 11.556 10.9274 10.8503 11.6088 10.2633C11.8877 10.0229 12.121 9.78411 12.3014 9.58311C12.3219 9.58867 12.3428 9.59438 12.3641 9.60021C12.7691 9.7114 13.3026 9.8685 13.8304 10.0548C14.3687 10.2448 14.8553 10.4493 15.1906 10.6466C15.2269 10.6679 15.2592 10.6879 15.288 10.7066C15.1891 10.8868 15.0397 11.1186 14.8394 11.3903C14.4066 11.9774 13.7835 12.687 13.0531 13.3707C12.3216 14.0555 11.5071 14.6914 10.696 15.1506C9.87316 15.6165 9.12931 15.8578 8.51786 15.8578C7.90642 15.8578 7.16257 15.6165 6.3397 15.1506C5.52865 14.6914 4.71411 14.0555 3.98262 13.3707C3.25226 12.687 2.62908 11.9774 2.19635 11.3903C1.99603 11.1186 1.84666 10.8868 1.74771 10.7066C1.77651 10.6879 1.80888 10.6679 1.84511 10.6466C2.18042 10.4493 2.66699 10.2448 3.20533 10.0548C3.73316 9.8685 4.2666 9.7114 4.67165 9.60021ZM15.4843 10.8599C15.4841 10.8599 15.4826 10.8582 15.4801 10.8549C15.4831 10.8582 15.4844 10.8599 15.4843 10.8599ZM1.55147 10.8599C1.55136 10.8599 1.55263 10.8582 1.55565 10.8549C1.5531 10.8582 1.55159 10.8599 1.55147 10.8599ZM11.1939 3.72902C11.1939 4.50571 10.8663 5.48735 10.3045 6.27083C9.73165 7.06984 9.07587 7.45537 8.51786 7.45537C7.95986 7.45537 7.30408 7.06984 6.7312 6.27083C6.16945 5.48735 5.84182 4.50571 5.84182 3.72902C5.84182 2.25108 7.03993 1.05298 8.51786 1.05298C9.9958 1.05298 11.1939 2.25108 11.1939 3.72902Z" stroke="#5A4BC9" stroke-width="2"/>
<path d="M21.2303 13.3031L17.6758 13.3032M14.1213 13.3033L17.6758 13.3032M17.6758 13.3032V16.8577M17.6758 13.3032V9.74866" stroke="#F6F7FD" stroke-width="6" stroke-linecap="round"/>
<path d="M21.2303 13.3031L17.6758 13.3032M14.1213 13.3033L17.6758 13.3032M17.6758 13.3032V16.8577M17.6758 13.3032V9.74866" stroke="#5A4BC9" stroke-width="2" stroke-linecap="round"/>
</svg>
