<svg width="26" height="22" viewBox="0 0 26 22" fill="none" xmlns="http://www.w3.org/2000/svg">
<path d="M4.49001 9.60021C4.51127 9.59438 4.53215 9.58868 4.55263 9.58311C4.73305 9.78411 4.96636 10.0229 5.24532 10.2633C5.92668 10.8503 7.00814 11.556 8.33622 11.556C9.6643 11.556 10.7458 10.8503 11.4271 10.2633C11.7061 10.0229 11.9394 9.78411 12.1198 9.58311C12.1403 9.58867 12.1612 9.59438 12.1824 9.60021C12.5875 9.7114 13.1209 9.8685 13.6488 10.0548C14.1871 10.2448 14.6737 10.4493 15.009 10.6466C15.0452 10.6679 15.0776 10.6879 15.1064 10.7066C15.0074 10.8868 14.8581 11.1186 14.6577 11.3903C14.225 11.9774 13.6018 12.687 12.8715 13.3707C12.14 14.0555 11.3254 14.6914 10.5144 15.1506C9.69152 15.6165 8.94767 15.8578 8.33622 15.8578C7.72478 15.8578 6.98093 15.6165 6.15806 15.1506C5.34701 14.6914 4.53247 14.0555 3.80098 13.3707C3.07062 12.687 2.44744 11.9774 2.01471 11.3903C1.81439 11.1186 1.66502 10.8868 1.56607 10.7066C1.59487 10.6879 1.62724 10.6679 1.66347 10.6466C1.99877 10.4493 2.48535 10.2448 3.02369 10.0548C3.55152 9.8685 4.08496 9.7114 4.49001 9.60021ZM15.3026 10.8599C15.3025 10.8599 15.301 10.8582 15.2984 10.8549C15.3015 10.8582 15.3027 10.8599 15.3026 10.8599ZM1.36983 10.8599C1.36972 10.8599 1.37099 10.8582 1.37401 10.8549C1.37146 10.8582 1.36995 10.8599 1.36983 10.8599ZM11.0123 3.72902C11.0123 4.50571 10.6846 5.48735 10.1229 6.27083C9.55001 7.06984 8.89423 7.45537 8.33622 7.45537C7.77822 7.45537 7.12244 7.06984 6.54956 6.27083C5.98781 5.48735 5.66018 4.50571 5.66018 3.72902C5.66018 2.25108 6.85828 1.05298 8.33622 1.05298C9.81416 1.05298 11.0123 2.25108 11.0123 3.72902Z" stroke="#687897" stroke-width="2"/>
<path d="M21.0486 13.3031L17.4941 13.3032M13.9397 13.3033L17.4941 13.3032M17.4941 13.3032V16.8577M17.4941 13.3032V9.74866" stroke="#F6F7FD" stroke-width="6" stroke-linecap="round"/>
<path d="M21.0486 13.3031L17.4941 13.3032M13.9397 13.3033L17.4941 13.3032M17.4941 13.3032V16.8577M17.4941 13.3032V9.74866" stroke="#687897" stroke-width="2" stroke-linecap="round"/>
</svg>
